[
{
  "pk": 1, 
  "model": "foodcoop.supplier", 
  "fields": {
    "buyers": [
      2
    ], 
    "name": "\u05e0\u05d9\u05e6\u05ea \u05d4\u05d3\u05d5\u05d1\u05d3\u05d1\u05df"
  }
},
{
  "pk": 2, 
  "model": "foodcoop.supplier", 
  "fields": {
    "buyers": [
      3
    ], 
    "name": "\u05e9\u05d9\u05de\u05d5\u05e8\u05d9 \u05d0\u05d9\u05db\u05d5\u05ea"
  }
},
{
  "pk": 3, 
  "model": "foodcoop.supplier", 
  "fields": {
    "buyers": [
      2
    ], 
    "name": "\u05de\u05e0\u05d7\u05ea \u05d4\u05d0\u05e8\u05e5"
  }
},
{
  "pk": 4, 
  "model": "foodcoop.supplier", 
  "fields": {
    "buyers": [
      3
    ], 
    "name": "\u05de\u05e9\u05e7 \u05d1\u05e8\u05d0\u05dc"
  }
}
]
